# the upstream component nginx needs to connect to
upstream django {
    server 127.0.0.1:9999; # 使用8001端口与uWSGI服务器通信
}

# configuration of the server
server {
    # 监听80端口
    #listen      2234 default backlog=2048;
    #listen 51322;
    #listen      1234 ssl;
    listen      1234;
    # the domain name it will serve force
    # server_name 202.189.0.35; # 改为服务器IP
    server_name 192.168.101.151; # 改为服务器IP
    charset     utf-8;
    # include 	/etc/nginx/conf.d/ip.conf;
    ssl_certificate /etc/nginx/ssl/nginx.crt;
    ssl_certificate_key /etc/nginx/ssl/nginx.key;
    server_tokens off;

    # 允许上传最大文件尺寸
    client_max_body_size 75M;

    # # Django static文件
    location   /static {
        alias /home/ubuntu/data3/lk/pycharm_projects/FaceCheckIncp/static/;
    }
    location   /F {
        alias /home/ubuntu/data3/lk/pycharm_projects/FaceCheckIncp/static/FrontEnd/;
    }
    location   /active {
        index page-login.html;
        alias /home/ubuntu/data3/lk/pycharm_projects/FaceCheckIncp/static/FrontEnd/;

    }

    # 将动态请求交付给Django处理
    location  / {
        uwsgi_pass  django;
        include     /etc/nginx/uwsgi_params; # the uwsgi_params file you installed
        uwsgi_read_timeout 120s;
        uwsgi_send_timeout 120s;
    }
    # location = /favicon.ico {
    #     log_not_found off;
    #     access_log off;
    # }
    access_log /var/log/nginx/facecheck.access.log;
    error_log /var/log/nginx/facecheck.error.log;
}# the upstream component nginx needs to connect to
