192.168.101.30
20180816154255549679:192.168.101.30
20180816154909010354:192.168.101.30
20180816155127251886:192.168.101.30
20180816155506264227:192.168.101.29
20180816155558608180:192.168.101.29
20180816165139388859:192.168.101.29
20180816165319350752:192.168.101.29
20180816165337982234:192.168.101.29
20180816171410163314:192.168.101.29
20180816174232310606:192.168.101.29
20180816185955408497:192.168.101.30
20180816185959609429:192.168.101.30
20180816190004548484:192.168.101.30
20180816190215317845:192.168.101.30
20180816190230659653:192.168.101.30
20180816193128396902:192.168.31.158
20180816193132039170:192.168.31.158
20180816194419597002:192.168.101.30
20180816194428536788:192.168.101.30
20180816200408643192:192.168.101.29
20180816200508901398:192.168.101.29
20180816201303546289:192.168.101.29
20180816201443703510:192.168.101.29
20180816202110941830:192.168.101.29
20180816202136643427:192.168.101.29
20180816202200314814:192.168.101.29
20180816202218431672:192.168.101.29
20180816202231261579:192.168.101.29
20180816202714940666:192.168.101.29
20180816202727433876:192.168.101.29
20180816202734009352:192.168.101.29
20180816202843280656:192.168.101.29
20180816203410158085:192.168.101.29
20180816203605358335:192.168.101.29
20180816203753618632:192.168.101.29
20180816204439933066:192.168.101.29
20180816204514317442:192.168.101.29
20180816204534739399:192.168.101.29
20180816204615721171:192.168.101.29
20180816205032467785:192.168.101.29
20180816214114079801:192.168.31.158
20180816215454466074:192.168.101.30
20180817092005004690:192.168.31.158
20180817092632218771:192.168.31.158
20180817102731094987:192.168.101.30
20180817110831185968:192.168.101.29
20180817110843841837:192.168.101.30
20180817142039825188:192.168.31.225
20180817142044290790:192.168.31.225
20180817142049911013:192.168.31.225
20180817142053853403:192.168.31.225
20180817142057468136:192.168.31.225
20180817142101428123:192.168.31.225
20180817151210571871:192.168.101.29
20180817155556007355:192.168.31.133
20180817155636647044:192.168.101.11
20180817155652643758:192.168.101.11
20180817155656923329:192.168.101.11
20180817155700801413:192.168.101.11
20180817155704820131:192.168.101.11
20180817155948784505:192.168.101.45
20180817155952942463:192.168.101.45
20180817155959183611:192.168.101.45
20180817160005094073:192.168.101.45
20180817160008575607:192.168.101.45
20180817160057505888:192.168.101.41
20180817160815185630:192.168.101.45
20180817163323989749:10.22.138.73
20180817163333656118:10.22.138.73
20180817163343801335:10.22.138.73
20180817163928156892:192.168.1.140
20180817184949191394:192.168.0.102
20180817185022370926:192.168.0.102
20180817185033385134:192.168.0.102
20180817185037267834:192.168.0.102
20180817185146036651:192.168.0.102
20180817185158267227:192.168.0.102
20180817185206198506:192.168.0.102
20180817185209993275:192.168.0.102
20180817185417478009:192.168.0.102
20180817185421767880:192.168.0.102
20180817191528925861:192.168.31.158
20180817191534256226:192.168.31.158
20180817191538486636:192.168.31.158
20180817191543742922:192.168.31.158
20180817191642260938:192.168.31.158
20180817191646402438:192.168.31.158
20180817191649925065:192.168.31.158
20180817191653620617:192.168.31.158
20180817191658130038:192.168.31.158
20180817191701783215:192.168.31.158
20180817191705404911:192.168.31.158
20180817191709093564:192.168.31.158
20180817191814159737:192.168.31.158
20180817191818841887:192.168.31.158
20180817193522130828:192.168.101.30
20180817194114627997:192.168.0.102
20180817194139841042:192.168.0.102
20180817194158014264:192.168.0.102
20180817194258825808:192.168.0.102
20180817194308065606:192.168.0.102
20180817194629536490:192.168.0.102
20180817200055744139:192.168.101.29
20180817200608483560:192.168.101.29
20180817200628135289:192.168.101.29
20180817201000115364:192.168.101.29
20180817201014089457:192.168.101.29
20180817201018954234:192.168.101.29
20180817201023159663:192.168.101.29
20180817201114255843:192.168.101.29
20180817201122007849:192.168.101.29
20180817201125782259:192.168.101.29
20180817201129925467:192.168.101.29
20180817211251685182:192.168.101.30
20180817220904687250:192.168.101.30
20180817220910678817:192.168.101.30
20180817220920873639:192.168.101.30
20180817221425913106:192.168.31.158
20180817224044736576:192.168.31.158
20180817224048424691:192.168.31.158
20180817224052329852:192.168.31.158
20180818085134964451:192.168.1.5
20180818085155963924:192.168.1.5
20180818090704434648:192.168.31.158
20180818091513866108:192.168.31.158
20180818091518904899:192.168.31.158
20180818091534333209:192.168.31.158
20180818091539390351:192.168.31.158
20180818091544337908:192.168.31.158
20180818091548070910:192.168.31.158
20180818091551803101:192.168.31.158
20180818091555836246:192.168.31.158
20180818091559963767:192.168.31.158
20180818093446480810:192.168.101.11
20180818093501889555:192.168.101.11
20180818093928657406:192.168.31.158
20180818164537752416:192.168.101.30
20180818174132767842:192.168.101.30
20180818203910218123:192.168.101.30
20180818204252156971:192.168.101.30
20180818215636447580:192.168.31.158
20180818215641507330:192.168.31.158
20180818221924463166:192.168.101.30
20180818224955481500:192.168.31.158
20180819085143809678:192.168.31.158
20180819093722729605:192.168.101.30
20180819093752396220:192.168.101.30
20180819095836111338:192.168.101.30
20180819111116282292:192.168.31.158
20180819171528055879:192.168.31.158
20180819220906561769:192.168.31.158
20180819221021137573:192.168.31.158
20180820082130112791:192.168.31.158
20180820083824381107:192.168.31.158
20180820085524354515:192.168.101.30
20180820092253467736:192.168.31.158
20180820092257441351:192.168.31.158
20180820092310265196:192.168.31.158
20180820092423416123:192.168.101.30
20180820092554498736:192.168.31.158
20180820142216993997:192.168.101.29
20180820142347669371:192.168.101.5
20180820142354953907:192.168.101.5
20180820142359628954:192.168.101.5
20180820142438121111:192.168.101.5
20180820142442013225:192.168.101.5
20180820142447593348:192.168.101.5
20180820142452014295:192.168.101.5
20180820142502082474:192.168.101.5
20180820142506694760:192.168.101.5
20180820142512468728:192.168.101.5
20180820142533532509:192.168.101.5
20180820143300353257:192.168.101.30
20180820143307748809:192.168.101.30
20180820143312736716:192.168.101.30
20180820143319204359:192.168.101.30
20180820143805953108:192.168.1.107
20180820143822568201:192.168.1.107
20180820143850017486:192.168.1.107
20180820143900865783:192.168.1.107
20180820143911657069:192.168.1.107
20180820143922566663:192.168.1.107
20180820143937975683:192.168.1.107
20180820143949493670:192.168.1.107
20180820144015261989:192.168.1.107
20180820144030192962:192.168.1.107
20180820145631997116:192.168.1.107
20180820153254071866:192.168.1.107
20180820165733842721:192.168.101.29
20180820184316060326:192.168.31.158
20180820185944120924:192.168.101.30
20180820190022539452:192.168.101.30
20180820190026480663:192.168.101.30
20180820190031627089:192.168.101.30
20180820190104542011:192.168.101.30
20180820190109544355:192.168.101.30
20180820190115784552:192.168.101.30
20180820190119534167:192.168.101.30
20180820190123306853:192.168.101.30
20180820190127006185:192.168.101.30
20180820190131287976:192.168.101.30
20180820190135240668:192.168.101.30
20180820190138901255:192.168.101.30
20180820190146869534:192.168.101.30
20180820190153304603:192.168.101.30
20180820190208978343:192.168.101.30
20180820190212322769:192.168.101.30
20180820190216230141:192.168.101.30
20180820190219486441:192.168.101.30
20180820193636397262:192.168.101.28
20180820195534525258:192.168.31.158
20180820203811016855:192.168.1.107
20180820203839492657:192.168.1.107
20180820211945511444:192.168.1.107
20180820212005012010:192.168.1.107
20180820212655917556:192.168.101.29
20180820213432718074:192.168.101.30
20180820213436914817:192.168.101.30
20180820213442249557:192.168.101.30
20180820213445881549:192.168.101.30
20180820213450921021:192.168.101.30
20180820213454538166:192.168.101.30
20180820213458366648:192.168.101.30
20180820213501811108:192.168.101.30
20180820213505709068:192.168.101.30
20180820213509316270:192.168.101.30
20180820213513438888:192.168.101.30
20180820213517287627:192.168.101.30
20180820213522099615:192.168.101.30
20180820213529645006:192.168.101.30
20180820213535337308:192.168.101.30
20180820213539428075:192.168.101.30
20180820213543719155:192.168.101.30
20180820213547388565:192.168.101.30
20180820213550815650:192.168.101.30
20180820213554626702:192.168.101.30
20180820213558014539:192.168.101.30
20180820213604877319:192.168.101.30
20180820213611398396:192.168.101.30
20180820213626997771:192.168.101.30
20180820213631978203:192.168.101.30
20180820214541426151:192.168.101.30
20180820214648081915:192.168.101.29
20180820220340798324:192.168.1.107
20180820220419819319:192.168.1.107
20180820220435894510:192.168.1.107
20180820221521834449:192.168.101.29
20180820230048791643:192.168.31.158
20180820230107890276:192.168.31.158
20180821083227978656:192.168.31.158
20180821083234859997:192.168.31.158
20180821083916569260:192.168.101.30
20180821083942322348:192.168.101.30
20180821091500292045:192.168.31.158
20180821091517803993:192.168.31.158
20180821091545080014:192.168.31.158
20180821092203586377:192.168.101.29
20180821092207600536:192.168.101.29
20180821103328363667:192.168.101.41
20180821103333889614:192.168.101.41
20180821103431461746:192.168.101.30
20180821104527344186:192.168.101.30
20180821104910689108:192.168.1.107
20180821110742810241:192.168.1.107
20180821112858915704:192.168.101.29
20180821112918874349:192.168.101.29
20180821112930518552:192.168.101.29
20180821112934299215:192.168.101.29
20180821113016312277:192.168.101.30
20180821113020113074:192.168.101.30
20180821135959335468:192.168.1.107
20180821140021128211:192.168.1.107
20180821140035787824:192.168.1.107
20180821142013425375:192.168.101.41
20180821144958191058:192.168.101.41
20180821162043278326:192.168.101.29
20180821162618368565:192.168.101.28
20180821163628131869:192.168.101.30
20180821163639662609:192.168.101.30
20180821163646115210:192.168.101.30
20180821163701433768:192.168.101.30
20180821164212659358:192.168.101.5
20180821164814767802:192.168.101.30
20180821164919067805:192.168.101.30
20180821164926973323:192.168.101.30
20180821171954764083:192.168.1.107
20180821175152276719:192.168.31.158
20180821181756302485:192.168.31.158
20180821181951139553:192.168.101.29
20180821181954559375:192.168.101.29
20180821182232904024:192.168.101.29
20180821194837660992:192.168.101.30
20180821194849833784:192.168.101.30
20180821201225657385:192.168.101.30
20180821202036414819:192.168.1.107
20180821210558773390:192.168.31.158
20180821210604155186:192.168.31.158
20180821214730818168:192.168.101.30
20180821215154420609:192.168.101.30
20180821215201457958:192.168.101.30
20180821215207979297:192.168.101.30
20180821215220967737:192.168.101.30
20180821215226685315:192.168.101.30
20180821215236340388:192.168.101.30
20180821215244084988:192.168.101.30
20180821215249058623:192.168.101.30
20180821215252979472:192.168.101.30
20180821215256561352:192.168.101.30
20180821215300852800:192.168.101.30
20180821215310169561:192.168.101.30
20180821215313951665:192.168.101.30
20180821215321013498:192.168.101.30
20180821215356608216:192.168.1.107
20180821215607000429:192.168.101.30
20180821215740868724:192.168.101.30
20180821221605514715:192.168.31.158
20180821225529781113:192.168.31.158
20180821225600329749:192.168.31.158
20180822085552718635:192.168.101.5
20180822085629110004:192.168.101.30
20180822085641863997:192.168.101.5
20180822085805860159:192.168.101.29
20180822085859219276:192.168.101.29
20180822090610700161:192.168.101.30
20180822090614760085:192.168.101.30
20180822091252117598:192.168.31.158
20180822091359521128:192.168.31.158
20180822091534828425:192.168.101.30
20180822091539154962:192.168.101.30
20180822091747310730:192.168.31.158
20180822092054046530:192.168.31.158
20180822092235177767:192.168.1.107
20180822094302676790:192.168.31.158
20180822100836731914:192.168.1.107
20180822100855947899:192.168.1.107
20180822100918872802:192.168.1.107
20180822103526076458:192.168.101.29
20180822103637562432:192.168.101.29
20180822105352011344:192.168.101.29
20180822110814925348:192.168.101.29
20180822111805571815:192.168.101.29
20180822114745309453:192.168.101.29
20180822114750320881:192.168.101.29
20180822120502323507:192.168.101.30
20180822134051621270:192.168.101.29
20180822151942334662:192.168.101.29
20180822152201200632:192.168.101.29
20180822171442258103:192.168.101.29
20180822171446672564:192.168.101.29
20180822172647306476:172.17.0.1
20180822181152213776:192.168.1.107
20180822182648210752:192.168.31.158
20180822190933815752:10.13.64.186
20180822193641815689:192.168.101.29
20180822194301324658:172.17.0.1
20180822194432499115:172.17.0.1
20180822194852844453:192.168.31.158
20180822194921426685:172.17.0.1
20180822200824056723:192.168.101.29
20180822201346211410:192.168.101.29
20180822201509832901:192.168.101.29
20180822202239084716:192.168.101.29
20180822202559935149:192.168.101.29
20201005094710113887
0001
20201006124606566076
0001
20210415133618221682
0001
